appnope==0.1.0
argon2-cffi==20.1.0
attrs==20.1.0
backcall==0.2.0
bleach==3.1.5
cffi==1.14.2
cycler==0.10.0
dataclasses==0.8
decorator==4.4.2
defusedxml==0.6.0
entrypoints==0.3
importlib-metadata==1.7.0
ipykernel==5.3.4
ipython==7.16.1
ipython-genutils==0.2.0
ipywidgets==7.5.1
jedi==0.17.2
Jinja2==2.11.2
jsonschema==3.2.0
jupyter==1.0.0
jupyter-client==6.1.7
jupyter-console==6.2.0
jupyter-core==4.6.3
kiwisolver==1.3.1
MarkupSafe==1.1.1
matplotlib==3.3.3
mistune==0.8.4
nbconvert==5.6.1
nbformat==5.0.7
notebook==6.1.3
numpy==1.19.1
packaging==20.4
pandocfilters==1.4.2
parso==0.7.1
pexpect==4.8.0
pickleshare==0.7.5
Pillow==8.0.1
prometheus-client==0.8.0
prompt-toolkit==3.0.7
ptyprocess==0.6.0
pycparser==2.20
Pygments==2.6.1
pyparsing==2.4.7
pyrsistent==0.16.0
python-dateutil==2.8.1
pyzmq==19.0.2
qtconsole==4.7.6
QtPy==1.9.0
scipy==1.5.2
Send2Trash==1.5.0
six==1.15.0
terminado==0.8.3
testpath==0.4.4
torch==1.7.1
tornado==6.0.4
traitlets==4.3.3
typing-extensions==3.7.4.3
wcwidth==0.2.5
webencodings==0.5.1
widgetsnbextension==3.5.1
zipp==3.1.0
